{"data":[{"id":"cmmfykxk9000brd9uerltzgwd","name":"FISH - CURRY","description":"Freshly prepared FISH - CURRY","price":12,"image":"restaurant_assets/jauf9ddbshlezpbbjzzz","categoryId":"cmmfyh7ed0000p9ep1d3wmot3","createdAt":"2026-03-07T06:44:57.705Z","updatedAt":"2026-03-07T07:15:36.097Z","category":{"id":"cmmfyh7ed0000p9ep1d3wmot3","name":"CURRY","createdAt":"2026-03-07T06:42:03.829Z","updatedAt":"2026-03-07T06:42:03.829Z"},"options":[]}],"total":45,"page":1,"totalPages":45}